Godot Engine v3.4.3.stable.arch_linux - https://godotengine.org
OpenGL ES 3.0 Renderer: AMD RENOIR (DRM 3.40.0, 5.10.105-1-MANJARO, LLVM 13.0.1)
OpenGL ES Batching: ON
 
/run/media/ethan/My
ERROR: Resource file not found: /run/media/ethan/My.
   at: _load (core/io/resource_loader.cpp:275) - Condition "!file_check->file_exists(p_path)" is true. Returned: RES()
[Object:null]
SCRIPT ERROR: Invalid type in function 'parse' in base '_JSON'. Cannot convert argument 1 from Object to String.
   at: _init (res://tag_importer.gd:44) - Invalid type in function 'parse' in base '_JSON'. Cannot convert argument 1 from Object to String.
